{
    "config": {
        "environments": {
            "local": {
                "target": "http://localhost:4000",
                "phases": [
                    {
                        "duration": 60,
                        "arrivalCount": 50
                    }
                ],
                "defaults": {
                    "headers": {
                        "Content-Type": "application/json"
                    }
                },
                "processor": "../../src/artillery_helpers/LoadTestRunnerHelpers.js",
                "http": {
                    "timeout": 30
                }
            }
        }
    },
    "scenarios": [
        {
            "flow": [
                {
                    "log": "Add a library"
                },
                {
                    "post": {
                        "url": "/libraries",
                        "json": {
                            "name": "New library"
                        },
                        "capture": {
                            "json": "id",
                            "as": "newLibraryId"
                        }
                    }
                },
                {
                    "log": "Get question types"
                },
                {
                    "get": {
                        "url": "/questionTypes",
                        "capture": {
                            "json": "$.questionTypes[0].id",
                            "as": "questionTypeId1"
                        }
                    }
                },
                {
                    "log": "Add a question"
                },
                {
                    "post": {
                        "url": "/questions",
                        "json": {
                            "name": "New Question",
                            "libraryId": "{{ libraryId1 }}",
                            "questionTypeId": "{{ questionTypeId1 }}"
                        },
                        "capture": {
                            "json": "id",
                            "as": "questionId1"
                        }
                    }
                },
                {
                    "log": "Add a question"
                },
                {
                    "post": {
                        "url": "/questions",
                        "json": {
                            "name": "New Question",
                            "libraryId": "{{ libraryId1 }}",
                            "questionTypeId": "{{ questionTypeId1 }}"
                        },
                        "capture": {
                            "json": "id",
                            "as": "questionId2"
                        }
                    }
                },
                {
                    "log": "Get identifications"
                },
                {
                    "get": {
                        "url": "/identifications",
                        "capture": {
                            "json": "$.identifications[0].id",
                            "as": "identificationId1"
                        }
                    }
                },
                {
                    "log": "Add a questionnaire with questions"
                },
                {
                    "post": {
                        "url": "/questionnaires",
                        "json": {
                            "name": "New Questionnaire",
                            "libraryId": "{{ libraryId1 }}",
                            "identificationId": "{{ identificationId1 }}",
                            "questionIds": [
                                "{{ questionId1 }}",
                                "{{ questionId2 }}"
                            ]
                        },
                        "capture": {
                            "json": "id",
                            "as": "questionnaireId1"
                        }
                    }
                },
                {
                    "log": "Add a questionnaire with questions and a questeionnaire"
                },
                {
                    "post": {
                        "url": "/questionnaires",
                        "json": {
                            "name": "New Questionnaire",
                            "libraryId": "{{ libraryId1 }}",
                            "identificationId": "{{ identificationId1 }}",
                            "questionIds": [
                                "{{ questionId1 }}",
                                "{{ questionId2 }}"
                            ],
                            "questionnaireIds": [
                                "{{ questionnaireId1 }}"
                            ]
                        },
                        "capture": {
                            "json": "id",
                            "as": "questionnaireId1"
                        }
                    }
                },
                {
                    "log": "Add a library"
                },
                {
                    "post": {
                        "url": "/libraries",
                        "json": {
                            "name": "New library"
                        },
                        "capture": {
                            "json": "id",
                            "as": "newLibraryId"
                        }
                    }
                },
                {
                    "log": "Get question types"
                },
                {
                    "get": {
                        "url": "/questionTypes",
                        "capture": {
                            "json": "$.questionTypes[0].id",
                            "as": "questionTypeId1"
                        }
                    }
                },
                {
                    "log": "Add a question"
                },
                {
                    "post": {
                        "url": "/questions",
                        "json": {
                            "name": "New Question1",
                            "libraryId": "{{ libraryId1 }}",
                            "questionTypeId": "{{ questionTypeId1 }}"
                        }
                    }
                },
                {
                    "log": "Add a question"
                },
                {
                    "post": {
                        "url": "/questions",
                        "json": {
                            "name": "New Question2",
                            "libraryId": "{{ libraryId1 }}",
                            "questionTypeId": "{{ questionTypeId1 }}"
                        }
                    }
                },
                {
                    "log": "Add a question"
                },
                {
                    "post": {
                        "url": "/questions",
                        "json": {
                            "name": "New Question3",
                            "libraryId": "{{ libraryId1 }}",
                            "questionTypeId": "{{ questionTypeId1 }}"
                        }
                    }
                },
                {
                    "log": "Get identifications"
                },
                {
                    "get": {
                        "url": "/identifications",
                        "capture": {
                            "json": "$.identifications[0].id",
                            "as": "identificationId1"
                        }
                    }
                },
                {
                    "log": "Add a questionnaire"
                },
                {
                    "post": {
                        "url": "/questionnaires",
                        "json": {
                            "name": "New Questionnaire",
                            "libraryId": "{{ libraryId1 }}",
                            "identificationId": "{{ identificationId1 }}"
                        }
                    }
                },
                {
                    "log": "Add a questionnaire"
                },
                {
                    "post": {
                        "url": "/questionnaires",
                        "json": {
                            "name": "New Questionnaire",
                            "libraryId": "{{ libraryId1 }}",
                            "identificationId": "{{ identificationId1 }}"
                        }
                    }
                },
                {
                    "log": "Add a questionnaire"
                },
                {
                    "post": {
                        "url": "/questionnaires",
                        "json": {
                            "name": "New Questionnaire",
                            "libraryId": "{{ libraryId1 }}",
                            "identificationId": "{{ identificationId1 }}"
                        }
                    }
                },
                {
                    "log": "Add a library"
                },
                {
                    "post": {
                        "url": "/libraries",
                        "json": {
                            "name": "New library"
                        },
                        "capture": {
                            "json": "id",
                            "as": "newLibraryId"
                        }
                    }
                },
                {
                    "log": "Get question types"
                },
                {
                    "get": {
                        "url": "/questionTypes",
                        "capture": {
                            "json": "$.questionTypes[0].id",
                            "as": "questionTypeId1"
                        }
                    }
                },
                {
                    "log": "Add a question"
                },
                {
                    "post": {
                        "url": "/questions",
                        "json": {
                            "name": "New Question",
                            "libraryId": "{{ libraryId1 }}",
                            "questionTypeId": "{{ questionTypeId1 }}"
                        },
                        "capture": {
                            "json": "id",
                            "as": "questionId1"
                        }
                    }
                },
                {
                    "log": "Add a question"
                },
                {
                    "post": {
                        "url": "/questions",
                        "json": {
                            "name": "New Question",
                            "libraryId": "{{ libraryId1 }}",
                            "questionTypeId": "{{ questionTypeId1 }}"
                        },
                        "capture": {
                            "json": "id",
                            "as": "questionId2"
                        }
                    }
                },
                {
                    "log": "Get identifications"
                },
                {
                    "get": {
                        "url": "/identifications",
                        "capture": {
                            "json": "$.identifications[0].id",
                            "as": "identificationId1"
                        }
                    }
                },
                {
                    "log": "Add a questionnaire with questions"
                },
                {
                    "post": {
                        "url": "/questionnaires",
                        "json": {
                            "name": "New Questionnaire",
                            "libraryId": "{{ libraryId1 }}",
                            "identificationId": "{{ identificationId1 }}",
                            "questionIds": [
                                "{{ questionId1 }}",
                                "{{ questionId2 }}"
                            ]
                        },
                        "capture": {
                            "json": "id",
                            "as": "questionnaireId1"
                        }
                    }
                },
                {
                    "log": "Edit a questionnaire by adding a questionnaire with questions"
                },
                {
                    "put": {
                        "url": "/questionnaires",
                        "json": {
                            "name": "New Questionnaire",
                            "libraryId": "{{ libraryId1 }}",
                            "identificationId": "{{ identificationId1 }}",
                            "questionnaireIds": [
                                "{{ questionnaireId1 }}"
                            ]
                        },
                        "capture": {
                            "json": "id",
                            "as": "questionnaireId1"
                        }
                    }
                }
            ]
        }
    ]
}